INFO: [VRFC 10-163] Analyzing VHDL file "D:/Documents/fpga_drp_projecten/VHDL_DRP_BRAMVGA/VHDL_DRP_BRAMVGA.srcs/sources_1/new/shiftRegister.vhd" into library xil_defaultlib
INFO: [VRFC 10-307] analyzing entity shiftRegister
INFO: [VRFC 10-163] Analyzing VHDL file "D:/Documents/fpga_drp_projecten/VHDL_DRP_BRAMVGA/VHDL_DRP_BRAMVGA.srcs/sources_1/new/Font.vhd" into library xil_defaultlib
INFO: [VRFC 10-307] analyzing entity Font
INFO: [VRFC 10-163] Analyzing VHDL file "D:/Documents/fpga_drp_projecten/VHDL_DRP_BRAMVGA/VHDL_DRP_BRAMVGA.srcs/sources_1/new/VGA_driver.vhd" into library xil_defaultlib
INFO: [VRFC 10-307] analyzing entity VGA_driver
INFO: [VRFC 10-163] Analyzing VHDL file "D:/Documents/fpga_drp_projecten/VHDL_DRP_BRAMVGA/VHDL_DRP_BRAMVGA.srcs/sim_1/new/vgaSim.vhd" into library xil_defaultlib
INFO: [VRFC 10-307] analyzing entity vgaSim
