ERROR: Exception caught trying to open file C:\Users\Dries Peeters\Documents\Sources\VHDL_DRP_BRAMVGA\VHDL_DRP_BRAMVGA.runs\impl_1/runme.log
	Exception name: Error
	Exception error code: 70
	Exception message: Toegang geweigerd
