
*** Running vivado
    with args -log core.vds -m64 -mode batch -messageDb vivado.pb -notrace -source core.tcl


****** Vivado v2015.4 (64-bit)
  **** SW Build 1412921 on Wed Nov 18 09:43:45 MST 2015
  **** IP Build 1412160 on Tue Nov 17 13:47:24 MST 2015
    ** Copyright 1986-2015 Xilinx, Inc. All Rights Reserved.

source core.tcl -notrace
WARNING: [Board 49-26] cannot add Board Part digilentinc.com:genesys2:part0:1.1 available at C:/Xilinx/Vivado/2015.4/data/boards/board_files/genesys2/H/board.xml as part xc7k325tffg900-2 specified in board_part file is either invalid or not available
Command: synth_design -top core -part xc7a35tcpg236-1
Starting synth_design
Attempting to get a license for feature 'Synthesis' and/or device 'xc7a35t'
INFO: [Common 17-349] Got license for feature 'Synthesis' and/or device 'xc7a35t'
---------------------------------------------------------------------------------
Starting RTL Elaboration : Time (s): cpu = 00:00:05 ; elapsed = 00:00:06 . Memory (MB): peak = 269.695 ; gain = 98.914
---------------------------------------------------------------------------------
ERROR: [Synth 8-2234] indexed name is not a std_logic [C:/Users/Dries Peeters/Documents/Sources/VHDL_DRP_XADC/VHDL_DRP_XADC.srcs/sources_1/new/core.vhd:60]
ERROR: [Synth 8-2234] indexed name is not a std_logic [C:/Users/Dries Peeters/Documents/Sources/VHDL_DRP_XADC/VHDL_DRP_XADC.srcs/sources_1/new/core.vhd:62]
ERROR: [Synth 8-2234] indexed name is not a std_logic [C:/Users/Dries Peeters/Documents/Sources/VHDL_DRP_XADC/VHDL_DRP_XADC.srcs/sources_1/new/core.vhd:63]
ERROR: [Synth 8-2234] indexed name is not a std_logic [C:/Users/Dries Peeters/Documents/Sources/VHDL_DRP_XADC/VHDL_DRP_XADC.srcs/sources_1/new/core.vhd:64]
INFO: [Synth 8-2810] unit behavioral ignored due to previous errors [C:/Users/Dries Peeters/Documents/Sources/VHDL_DRP_XADC/VHDL_DRP_XADC.srcs/sources_1/new/core.vhd:40]
---------------------------------------------------------------------------------
Finished RTL Elaboration : Time (s): cpu = 00:00:06 ; elapsed = 00:00:06 . Memory (MB): peak = 304.887 ; gain = 134.105
---------------------------------------------------------------------------------
RTL Elaboration failed
INFO: [Common 17-83] Releasing license: Synthesis
3 Infos, 1 Warnings, 0 Critical Warnings and 5 Errors encountered.
synth_design failed
ERROR: [Common 17-69] Command failed: Synthesis failed - please see the console or run log file for details
INFO: [Common 17-206] Exiting Vivado at Fri Mar 11 10:36:52 2016...
